[
   {
      "getList":
      {
         "currentPage":1,
         "totalPage":1,
         "totalCount":1,
         "data":
         [
            {
               "tenantId":"5cb8da76ae5b46a186933b1664568e06",
               "appId":"bdc8350b04cc645a9b46422dc095cdfe",
               "secret":null,
               "profile":"dev_test",
               "jobId":"734bad10a59e447eba5b3bc8ff594a1a",
               "jobName":"Y-数据库分段测试job23",
               "jobDesc":"Y-数据库分段测试job23",
               "jobType":"JOB",
               "jobStatus":null,
               "valid":"Y",
               "cronExpression":null,
               "creator":"idea",
               "createTime":1557159943000,
               "intervalTimeLimit":0,
               "modify":null,
               "modifyTime":null,
               "allowMultiple":"N",
               "attention":false
            }

         ],
         "code":"0000",
         "message":"Success"
      },
      "getChain":
      {
         "code":"0000",
         "message":"Success",
         "data":
         {
            "appId":"bdc8350b04cc645a9b46422dc095cdfe",
            "jobId":"734bad10a59e447eba5b3bc8ff594a1a",
            "jobName":"Y-数据库分段测试job23",
            "jobDesc":"Y-数据库分段测试job23",
            "creator":"idea",
            "tenantId":null,
            "jobRunStatus":null,
            "steps":
            [
               {
                  "tenantId":"5cb8da76ae5b46a186933b1664568e06",
                  "appId":"bdc8350b04cc645a9b46422dc095cdfe",
                  "secret":null,
                  "profile":"dev_test",
                  "stepId":"19e339a952c14aba9f184053f665044a",
                  "stepPosId":"20f2ccc8c98441038fc9fa9072b66dc7",
                  "jobId":"734bad10a59e447eba5b3bc8ff594a1a",
                  "nodeId":"S0003",
                  "nodePosType":"S",
                  "topPos":"124.00",
                  "leftPos":"77.00",
                  "width":"170.00",
                  "height":"27.00",
                  "creator":"admin",
                  "createTime":0,
                  "attrJson":null,
                  "sourceType":"luna",
                  "stepName":"数据库分段",
                  "stepDesc":"数据库分段查询",
                  "refJobId":null,
                  "stepRunEntity":null,
                  "appName":"ly01"
               }

            ],
            "lines":
            [
               
            ]

         }

      },
      "getChainStep_数据库分段":
      {
         "tenantId":"5cb8da76ae5b46a186933b1664568e06",
         "appId":"bdc8350b04cc645a9b46422dc095cdfe",
         "secret":null,
         "profile":"dev_test",
         "stepId":"19e339a952c14aba9f184053f665044a",
         "stepPosId":"20f2ccc8c98441038fc9fa9072b66dc7",
         "jobId":"734bad10a59e447eba5b3bc8ff594a1a",
         "nodeId":"S0003",
         "nodePosType":"S",
         "topPos":"124.00",
         "leftPos":"77.00",
         "width":"170.00",
         "height":"27.00",
         "creator":"admin",
         "createTime":0,
         "attrJson":null,
         "sourceType":"luna",
         "stepName":"数据库分段",
         "stepDesc":"数据库分段查询",
         "refJobId":null,
         "stepRunEntity":null,
         "appName":"ly01"
      },
      "jobCommand":
      {
         "code":"0000",
         "message":"Success",
         "data":
         {
            "tenantId":"5cb8da76ae5b46a186933b1664568e06",
            "appId":"bdc8350b04cc645a9b46422dc095cdfe",
            "profile":"dev_test",
            "jobId":"734bad10a59e447eba5b3bc8ff594a1a",
            "operator":"",
            "secret":"",
            "jobRunId":"8d70d4d6626d4762b1f2a30d2e7cdbe8",
            "instruction":"invokeOnce",
            "startType":""
         },
         "startJobTimeFlag":1573044483508
      },
      "getCurrentRunJob":
      {
         "currentPage":1,
         "totalPage":1,
         "totalCount":1,
         "data":
         [
            {
               "tenantId":"5cb8da76ae5b46a186933b1664568e06",
               "appId":"bdc8350b04cc645a9b46422dc095cdfe",
               "secret":null,
               "profile":"dev_test",
               "jobId":"734bad10a59e447eba5b3bc8ff594a1a",
               "jobName":"Y-数据库分段测试job23",
               "jobDesc":null,
               "jobType":null,
               "jobStatus":"C",
               "valid":"Y",
               "cronExpression":null,
               "creator":null,
               "createTime":null,
               "intervalTimeLimit":0,
               "modify":null,
               "modifyTime":null,
               "allowMultiple":"N",
               "jobRunId":"8d70d4d6626d4762b1f2a30d2e7cdbe8",
               "startType":"M",
               "startTime":1573044481796,
               "endTime":1573044483159,
               "finishedCnt":1,
               "failCnt":0,
               "totalCnt":1,
               "machineId":"10.7.19.111:9999",
               "operator":"",
               "createDate":"2019-11-06T12:48:02.000+0000"
            }

         ],
         "code":"0000",
         "message":"Success"
      },
      "getRunChain":
      {
         "code":"0000",
         "message":"Success",
         "data":
         {
            "appId":"bdc8350b04cc645a9b46422dc095cdfe",
            "jobId":"734bad10a59e447eba5b3bc8ff594a1a",
            "jobName":"Y-数据库分段测试job23",
            "jobDesc":null,
            "creator":null,
            "tenantId":null,
            "jobRunStatus":"C",
            "steps":
            [
               {
                  "tenantId":null,
                  "appId":null,
                  "secret":null,
                  "profile":null,
                  "stepId":null,
                  "stepPosId":null,
                  "jobId":null,
                  "nodeId":"S0003",
                  "nodePosType":"S",
                  "topPos":"124.00",
                  "leftPos":"77.00",
                  "width":"170.00",
                  "height":"27.00",
                  "creator":null,
                  "createTime":0,
                  "attrJson":null,
                  "sourceType":null,
                  "stepName":"数据库分段",
                  "stepDesc":"数据库分段查询",
                  "refJobId":null,
                  "stepRunEntity":
                  {
                     "tenantId":"5cb8da76ae5b46a186933b1664568e06",
                     "appId":"bdc8350b04cc645a9b46422dc095cdfe",
                     "secret":null,
                     "profile":"dev_test",
                     "stepId":"19e339a952c14aba9f184053f665044a",
                     "stepName":"数据库分段",
                     "stepDesc":"数据库分段查询",
                     "clazzName":"com.dcits.sonic.executor.spring.demo.segment.sd.step.SimpleStepSelectTrueTest01",
                     "splitClazzName":"com.dcits.sonic.executor.spring.segment.sd.SDStepSegmenter",
                     "stepType":"SD",
                     "refJobId":null,
                     "attrJson":
                     {
                        "sonic_sqlId":"segmentLimit",
                        "sonic_segmentField":"sid",
                        "sonic_nameSpace":"com.dcits.sonic.executor.spring.demo.model.User",
                        "sonic_maxSize":"10"
                     },
                     "creator":null,
                     "createTime":null,
                     "modify":null,
                     "modifyTime":null,
                     "reSegmentOnError":"N",
                     "stepSkipStrategy":null,
                     "stepRunId":"9c310ee29f534d4ca377d331fab3816c",
                     "stepPosId":"20f2ccc8c98441038fc9fa9072b66dc7",
                     "jobRunId":"8d70d4d6626d4762b1f2a30d2e7cdbe8",
                     "seqNo":0,
                     "dataCenter":null,
                     "machineId":"1f79be43da837f12a21cbadc94246679",
                     "startTime":1573044481959,
                     "endTime":1573044483137,
                     "splitCount":25,
                     "currentCount":25,
                     "failCount":0,
                     "startKey":"0",
                     "endKey":"0",
                     "stepStatus":"C",
                     "metricsJson":null,
                     "elapsed":1178,
                     "progress":100,
                     "createDate":"2019-11-06T00:00:00.000+0000",
                     "nodeId":"S0003",
                     "rootJobRunId":"8d70d4d6626d4762b1f2a30d2e7cdbe8",
                     "parentRunId":null,
                     "dynamicAttrJson":null
                  },
                  "appName":"ly01"
               }

            ],
            "lines":
            [
               
            ]

         }

      },
      "getCurrentRunStep":
      {
         "currentPage":1,
         "totalPage":1,
         "totalCount":1,
         "data":
         [
            {
               "tenantId":"5cb8da76ae5b46a186933b1664568e06",
               "appId":null,
               "secret":null,
               "profile":null,
               "stepId":"19e339a952c14aba9f184053f665044a",
               "stepName":"数据库分段",
               "stepDesc":"数据库分段查询",
               "clazzName":"com.dcits.sonic.executor.spring.demo.segment.sd.step.SimpleStepSelectTrueTest01",
               "splitClazzName":"com.dcits.sonic.executor.spring.segment.sd.SDStepSegmenter",
               "stepType":"SD",
               "refJobId":null,
               "attrJson":null,
               "creator":null,
               "createTime":null,
               "modify":null,
               "modifyTime":null,
               "reSegmentOnError":null,
               "stepSkipStrategy":null,
               "stepRunId":"9c310ee29f534d4ca377d331fab3816c",
               "stepPosId":null,
               "jobRunId":"8d70d4d6626d4762b1f2a30d2e7cdbe8",
               "seqNo":0,
               "dataCenter":null,
               "machineId":"10.7.94.75:55616",
               "startTime":1573044481959,
               "endTime":1573044483137,
               "splitCount":25,
               "currentCount":25,
               "failCount":null,
               "startKey":"0",
               "endKey":"0",
               "stepStatus":"C",
               "metricsJson":null,
               "elapsed":1178,
               "progress":100,
               "createDate":"2019-11-06T00:00:00.000+0000",
               "nodeId":null,
               "rootJobRunId":null,
               "parentRunId":null,
               "dynamicAttrJson":null,
               "params":
               [
                  {
                     "key":"sonic_sqlId",
                     "value":"segmentLimit"
                  },
                  {
                     "key":"sonic_segmentField",
                     "value":"sid"
                  },
                  {
                     "key":"sonic_nameSpace",
                     "value":"com.dcits.sonic.executor.spring.demo.model.User"
                  },
                  {
                     "key":"sonic_maxSize",
                     "value":"10"
                  }

               ]

            }

         ],
         "code":"0000",
         "message":"Success"
      },
      "step_1_数据库分段_段_info":
      {
         "tenantId":"5cb8da76ae5b46a186933b1664568e06",
         "appId":null,
         "secret":null,
         "profile":null,
         "stepId":"19e339a952c14aba9f184053f665044a",
         "stepName":"数据库分段",
         "stepDesc":"数据库分段查询",
         "clazzName":"com.dcits.sonic.executor.spring.demo.segment.sd.step.SimpleStepSelectTrueTest01",
         "splitClazzName":"com.dcits.sonic.executor.spring.segment.sd.SDStepSegmenter",
         "stepType":"SD",
         "refJobId":null,
         "attrJson":null,
         "creator":null,
         "createTime":null,
         "modify":null,
         "modifyTime":null,
         "reSegmentOnError":null,
         "stepSkipStrategy":null,
         "stepRunId":"9c310ee29f534d4ca377d331fab3816c",
         "stepPosId":null,
         "jobRunId":"8d70d4d6626d4762b1f2a30d2e7cdbe8",
         "seqNo":0,
         "dataCenter":null,
         "machineId":"10.7.94.75:55616",
         "startTime":1573044481959,
         "endTime":1573044483137,
         "splitCount":25,
         "currentCount":25,
         "failCount":null,
         "startKey":"0",
         "endKey":"0",
         "stepStatus":"C",
         "metricsJson":null,
         "elapsed":1178,
         "progress":100,
         "createDate":"2019-11-06T00:00:00.000+0000",
         "nodeId":null,
         "rootJobRunId":null,
         "parentRunId":null,
         "dynamicAttrJson":null,
         "params":
         [
            {
               "key":"sonic_sqlId",
               "value":"segmentLimit"
            },
            {
               "key":"sonic_segmentField",
               "value":"sid"
            },
            {
               "key":"sonic_nameSpace",
               "value":"com.dcits.sonic.executor.spring.demo.model.User"
            },
            {
               "key":"sonic_maxSize",
               "value":"10"
            }

         ]

      },
      "step_1_数据库分段_段_error":
      {
         "code":"0000",
         "message":"Success",
         "data":
         [
            
         ]

      },
      "step_1_数据库分段_段_list":
      {
         "currentPage":1,
         "totalPage":3,
         "totalCount":25,
         "data":
         {
            "tenantId":"5cb8da76ae5b46a186933b1664568e06",
            "appId":null,
            "secret":null,
            "profile":null,
            "stepId":"9c310ee29f534d4ca377d331fab3816c",
            "stepName":null,
            "stepDesc":null,
            "clazzName":"com.dcits.sonic.executor.spring.demo.segment.sd.step.SimpleStepSelectTrueTest01",
            "splitClazzName":"com.dcits.sonic.executor.spring.segment.sd.SDStepSegmenter",
            "stepType":"SD",
            "refJobId":null,
            "attrJson":null,
            "creator":null,
            "createTime":null,
            "modify":null,
            "modifyTime":null,
            "reSegmentOnError":null,
            "stepSkipStrategy":null,
            "stepRunId":"29723f98c3654201af9e494b31cc7981",
            "stepPosId":null,
            "jobRunId":"8d70d4d6626d4762b1f2a30d2e7cdbe8",
            "seqNo":1,
            "dataCenter":null,
            "machineId":"10.7.94.75:55616",
            "startTime":1573044482105,
            "endTime":1573044482233,
            "splitCount":0,
            "currentCount":0,
            "failCount":null,
            "startKey":null,
            "endKey":null,
            "stepStatus":"C",
            "metricsJson":null,
            "elapsed":128,
            "progress":100,
            "createDate":"2019-11-06T00:00:00.000+0000",
            "nodeId":null,
            "rootJobRunId":null,
            "parentRunId":null,
            "dynamicAttrJson":null,
            "params":
            [
               {
                  "key":"sonic_db_seg_map",
                  "value":
                  {
                     "sonic_segment_end":20,
                     "sonic_segment_start":2
                  }

               }

            ]

         },
         "code":"0000",
         "message":"Success",
         "allStepsCnt":"10",
         "finishedCnt":"10",
         "failedCnt":"0"
      }

   }

]